^C:\USERS\VLADIMIR\ONEDRIVE\DESKTOP\C++ TUTORIALS\SYMBOLS\CLIENT\SOURCE.CPP
C:\USERS\VLADIMIR\ONEDRIVE\DESKTOP\C++ TUTORIALS\SYMBOLS\CLIENT\X64\RELEASE\VC143.PDB
C:\USERS\VLADIMIR\ONEDRIVE\DESKTOP\C++ TUTORIALS\SYMBOLS\CLIENT\X64\RELEASE\SOURCE.OBJ
