^C:\USERS\VLADIMIR\ONEDRIVE\DESKTOP\C++ TUTORIALS\SYMBOLS\CLIENT\RELEASE\SOURCE.OBJ
C:\USERS\VLADIMIR\ONEDRIVE\DESKTOP\C++ TUTORIALS\SYMBOLS\CLIENT\RELEASE\CLIENT.EXE
C:\USERS\VLADIMIR\ONEDRIVE\DESKTOP\C++ TUTORIALS\SYMBOLS\CLIENT\RELEASE\CLIENT.PDB
